info face="MEGAMAN10" size=20 bold=0 italic=1 charset="" unicode=0 stretchH=100 smooth=1 aa=1 padding=2,2,2,2 spacing=-2,-2
common lineHeight=18 base=15 scaleW=512 scaleH=512 pages=1 packed=0
page id=0 file="gamefont.png"
chars count=174
char id=13      x=0    y=0    width=0    height=0    xoffset=-2   yoffset=0    xadvance=2    page=0    chnl=0 
char id=32      x=0    y=0    width=0    height=0    xoffset=-2   yoffset=0    xadvance=8    page=0    chnl=0 
char id=37      x=165  y=19   width=15   height=13   xoffset=-2   yoffset=4    xadvance=12   page=0    chnl=0 
char id=38      x=180  y=19   width=13   height=13   xoffset=-2   yoffset=4    xadvance=11   page=0    chnl=0 
char id=39      x=59   y=60   width=8    height=8    xoffset=2    yoffset=4    xadvance=10   page=0    chnl=0 
char id=40      x=14   y=0    width=10   height=15   xoffset=0    yoffset=2    xadvance=10   page=0    chnl=0 
char id=41      x=24   y=0    width=10   height=15   xoffset=1    yoffset=2    xadvance=11   page=0    chnl=0 
char id=42      x=193  y=19   width=15   height=13   xoffset=-2   yoffset=4    xadvance=12   page=0    chnl=0 
char id=43      x=208  y=19   width=14   height=13   xoffset=-2   yoffset=4    xadvance=12   page=0    chnl=0 
char id=44      x=67   y=60   width=8    height=8    xoffset=-1   yoffset=9    xadvance=7    page=0    chnl=0 
char id=45      x=92   y=60   width=13   height=7    xoffset=-2   yoffset=7    xadvance=11   page=0    chnl=0 
char id=46      x=105  y=60   width=8    height=7    xoffset=-1   yoffset=10   xadvance=7    page=0    chnl=0 
char id=47      x=184  y=47   width=13   height=12   xoffset=-2   yoffset=5    xadvance=11   page=0    chnl=0 
char id=48      x=222  y=19   width=15   height=13   xoffset=-2   yoffset=4    xadvance=12   page=0    chnl=0 
char id=49      x=237  y=19   width=10   height=13   xoffset=0    yoffset=4    xadvance=10   page=0    chnl=0 
char id=50      x=247  y=19   width=15   height=13   xoffset=-2   yoffset=4    xadvance=12   page=0    chnl=0 
char id=51      x=262  y=19   width=15   height=13   xoffset=-2   yoffset=4    xadvance=12   page=0    chnl=0 
char id=52      x=277  y=19   width=14   height=13   xoffset=-2   yoffset=4    xadvance=12   page=0    chnl=0 
char id=53      x=291  y=19   width=15   height=13   xoffset=-2   yoffset=4    xadvance=12   page=0    chnl=0 
char id=54      x=306  y=19   width=15   height=13   xoffset=-2   yoffset=4    xadvance=12   page=0    chnl=0 
char id=55      x=151  y=19   width=14   height=13   xoffset=-1   yoffset=4    xadvance=12   page=0    chnl=0 
char id=56      x=321  y=19   width=15   height=13   xoffset=-2   yoffset=4    xadvance=12   page=0    chnl=0 
char id=57      x=136  y=19   width=15   height=13   xoffset=-2   yoffset=4    xadvance=12   page=0    chnl=0 
char id=58      x=288  y=47   width=9    height=11   xoffset=0    yoffset=5    xadvance=8    page=0    chnl=0 
char id=59      x=502  y=34   width=9    height=12   xoffset=0    yoffset=5    xadvance=8    page=0    chnl=0 
char id=60      x=336  y=19   width=11   height=13   xoffset=-1   yoffset=4    xadvance=10   page=0    chnl=0 
char id=61      x=13   y=60   width=12   height=9    xoffset=-1   yoffset=6    xadvance=11   page=0    chnl=0 
char id=62      x=347  y=19   width=11   height=13   xoffset=1    yoffset=4    xadvance=12   page=0    chnl=0 
char id=63      x=34   y=0    width=13   height=15   xoffset=0    yoffset=2    xadvance=12   page=0    chnl=0 
char id=64      x=358  y=19   width=15   height=13   xoffset=-2   yoffset=4    xadvance=12   page=0    chnl=0 
char id=65      x=373  y=19   width=15   height=13   xoffset=-2   yoffset=4    xadvance=12   page=0    chnl=0 
char id=66      x=388  y=19   width=15   height=13   xoffset=-2   yoffset=4    xadvance=12   page=0    chnl=0 
char id=67      x=403  y=19   width=15   height=13   xoffset=-2   yoffset=4    xadvance=12   page=0    chnl=0 
char id=68      x=418  y=19   width=15   height=13   xoffset=-2   yoffset=4    xadvance=12   page=0    chnl=0 
char id=69      x=433  y=19   width=15   height=13   xoffset=-2   yoffset=4    xadvance=12   page=0    chnl=0 
char id=70      x=448  y=19   width=15   height=13   xoffset=-2   yoffset=4    xadvance=12   page=0    chnl=0 
char id=71      x=463  y=19   width=15   height=13   xoffset=-2   yoffset=4    xadvance=12   page=0    chnl=0 
char id=72      x=478  y=19   width=15   height=13   xoffset=-2   yoffset=4    xadvance=12   page=0    chnl=0 
char id=73      x=493  y=19   width=9    height=13   xoffset=1    yoffset=4    xadvance=10   page=0    chnl=0 
char id=74      x=0    y=34   width=13   height=13   xoffset=-2   yoffset=4    xadvance=11   page=0    chnl=0 
char id=75      x=13   y=34   width=15   height=13   xoffset=-2   yoffset=4    xadvance=12   page=0    chnl=0 
char id=76      x=28   y=34   width=12   height=13   xoffset=-1   yoffset=4    xadvance=12   page=0    chnl=0 
char id=77      x=40   y=34   width=15   height=13   xoffset=-2   yoffset=4    xadvance=12   page=0    chnl=0 
char id=78      x=55   y=34   width=15   height=13   xoffset=-2   yoffset=4    xadvance=12   page=0    chnl=0 
char id=79      x=70   y=34   width=15   height=13   xoffset=-2   yoffset=4    xadvance=12   page=0    chnl=0 
char id=80      x=85   y=34   width=15   height=13   xoffset=-2   yoffset=4    xadvance=12   page=0    chnl=0 
char id=81      x=100  y=34   width=15   height=13   xoffset=-2   yoffset=4    xadvance=12   page=0    chnl=0 
char id=82      x=115  y=34   width=15   height=13   xoffset=-2   yoffset=4    xadvance=12   page=0    chnl=0 
char id=83      x=130  y=34   width=15   height=13   xoffset=-2   yoffset=4    xadvance=12   page=0    chnl=0 
char id=84      x=145  y=34   width=13   height=13   xoffset=0    yoffset=4    xadvance=12   page=0    chnl=0 
char id=85      x=158  y=34   width=15   height=13   xoffset=-2   yoffset=4    xadvance=12   page=0    chnl=0 
char id=86      x=173  y=34   width=15   height=13   xoffset=-2   yoffset=4    xadvance=12   page=0    chnl=0 
char id=87      x=188  y=34   width=15   height=13   xoffset=-2   yoffset=4    xadvance=12   page=0    chnl=0 
char id=88      x=203  y=34   width=13   height=13   xoffset=-2   yoffset=4    xadvance=11   page=0    chnl=0 
char id=89      x=216  y=34   width=13   height=13   xoffset=-2   yoffset=4    xadvance=11   page=0    chnl=0 
char id=90      x=229  y=34   width=13   height=13   xoffset=-2   yoffset=4    xadvance=11   page=0    chnl=0 
char id=91      x=47   y=0    width=12   height=15   xoffset=0    yoffset=2    xadvance=11   page=0    chnl=0 
char id=92      x=197  y=47   width=11   height=12   xoffset=-1   yoffset=5    xadvance=11   page=0    chnl=0 
char id=93      x=59   y=0    width=12   height=15   xoffset=0    yoffset=2    xadvance=11   page=0    chnl=0 
char id=94      x=25   y=60   width=11   height=9    xoffset=-1   yoffset=2    xadvance=10   page=0    chnl=0 
char id=95      x=124  y=60   width=13   height=6    xoffset=-2   yoffset=11   xadvance=12   page=0    chnl=0 
char id=96      x=36   y=60   width=9    height=9    xoffset=0    yoffset=2    xadvance=8    page=0    chnl=0 
char id=97      x=297  y=47   width=14   height=11   xoffset=-2   yoffset=6    xadvance=12   page=0    chnl=0 
char id=98      x=242  y=34   width=14   height=13   xoffset=-2   yoffset=4    xadvance=12   page=0    chnl=0 
char id=99      x=311  y=47   width=14   height=11   xoffset=-2   yoffset=6    xadvance=12   page=0    chnl=0 
char id=100     x=256  y=34   width=15   height=13   xoffset=-2   yoffset=4    xadvance=12   page=0    chnl=0 
char id=101     x=325  y=47   width=14   height=11   xoffset=-2   yoffset=6    xadvance=12   page=0    chnl=0 
char id=102     x=271  y=34   width=13   height=13   xoffset=-2   yoffset=4    xadvance=11   page=0    chnl=0 
char id=103     x=208  y=47   width=14   height=12   xoffset=-2   yoffset=5    xadvance=12   page=0    chnl=0 
char id=104     x=284  y=34   width=14   height=13   xoffset=-2   yoffset=4    xadvance=12   page=0    chnl=0 
char id=105     x=502  y=19   width=9    height=13   xoffset=1    yoffset=4    xadvance=10   page=0    chnl=0 
char id=106     x=298  y=34   width=13   height=13   xoffset=-2   yoffset=4    xadvance=11   page=0    chnl=0 
char id=107     x=311  y=34   width=13   height=13   xoffset=-2   yoffset=4    xadvance=11   page=0    chnl=0 
char id=108     x=324  y=34   width=9    height=13   xoffset=1    yoffset=4    xadvance=10   page=0    chnl=0 
char id=109     x=339  y=47   width=14   height=11   xoffset=-2   yoffset=6    xadvance=12   page=0    chnl=0 
char id=110     x=353  y=47   width=14   height=11   xoffset=-2   yoffset=6    xadvance=12   page=0    chnl=0 
char id=111     x=367  y=47   width=14   height=11   xoffset=-2   yoffset=6    xadvance=12   page=0    chnl=0 
char id=112     x=222  y=47   width=14   height=12   xoffset=-2   yoffset=5    xadvance=12   page=0    chnl=0 
char id=113     x=236  y=47   width=15   height=12   xoffset=-2   yoffset=5    xadvance=12   page=0    chnl=0 
char id=114     x=381  y=47   width=12   height=11   xoffset=-2   yoffset=6    xadvance=10   page=0    chnl=0 
char id=115     x=393  y=47   width=14   height=11   xoffset=-2   yoffset=6    xadvance=12   page=0    chnl=0 
char id=116     x=333  y=34   width=13   height=13   xoffset=-2   yoffset=4    xadvance=11   page=0    chnl=0 
char id=117     x=407  y=47   width=14   height=11   xoffset=-2   yoffset=6    xadvance=12   page=0    chnl=0 
char id=118     x=421  y=47   width=14   height=11   xoffset=-2   yoffset=6    xadvance=12   page=0    chnl=0 
char id=119     x=435  y=47   width=14   height=11   xoffset=-2   yoffset=6    xadvance=12   page=0    chnl=0 
char id=120     x=449  y=47   width=14   height=11   xoffset=-2   yoffset=6    xadvance=12   page=0    chnl=0 
char id=121     x=463  y=47   width=14   height=11   xoffset=-2   yoffset=6    xadvance=12   page=0    chnl=0 
char id=122     x=477  y=47   width=13   height=11   xoffset=-2   yoffset=6    xadvance=11   page=0    chnl=0 
char id=123     x=71   y=0    width=11   height=15   xoffset=-1   yoffset=2    xadvance=10   page=0    chnl=0 
char id=124     x=82   y=0    width=8    height=15   xoffset=1    yoffset=2    xadvance=8    page=0    chnl=0 
char id=125     x=90   y=0    width=11   height=15   xoffset=1    yoffset=2    xadvance=12   page=0    chnl=0 
char id=126     x=45   y=60   width=14   height=9    xoffset=-2   yoffset=6    xadvance=12   page=0    chnl=0 
char id=160     x=0    y=0    width=0    height=0    xoffset=-2   yoffset=0    xadvance=8    page=0    chnl=0 
char id=161     x=101  y=0    width=14   height=15   xoffset=-1   yoffset=2    xadvance=12   page=0    chnl=0 
char id=162     x=346  y=34   width=12   height=13   xoffset=-2   yoffset=4    xadvance=10   page=0    chnl=0 
char id=163     x=358  y=34   width=12   height=13   xoffset=-2   yoffset=4    xadvance=11   page=0    chnl=0 
char id=166     x=370  y=34   width=8    height=13   xoffset=1    yoffset=4    xadvance=8    page=0    chnl=0 
char id=168     x=113  y=60   width=11   height=7    xoffset=0    yoffset=4    xadvance=11   page=0    chnl=0 
char id=169     x=378  y=34   width=14   height=13   xoffset=-2   yoffset=4    xadvance=12   page=0    chnl=0 
char id=171     x=392  y=34   width=15   height=13   xoffset=-2   yoffset=4    xadvance=12   page=0    chnl=0 
char id=174     x=407  y=34   width=14   height=13   xoffset=-2   yoffset=4    xadvance=12   page=0    chnl=0 
char id=176     x=75   y=60   width=9    height=8    xoffset=0    yoffset=4    xadvance=8    page=0    chnl=0 
char id=177     x=421  y=34   width=12   height=13   xoffset=-1   yoffset=4    xadvance=11   page=0    chnl=0 
char id=183     x=84   y=60   width=8    height=8    xoffset=2    yoffset=6    xadvance=10   page=0    chnl=0 
char id=187     x=433  y=34   width=14   height=13   xoffset=-2   yoffset=4    xadvance=12   page=0    chnl=0 
char id=191     x=115  y=0    width=12   height=15   xoffset=-2   yoffset=2    xadvance=11   page=0    chnl=0 
char id=192     x=127  y=0    width=14   height=15   xoffset=-2   yoffset=2    xadvance=12   page=0    chnl=0 
char id=193     x=141  y=0    width=14   height=15   xoffset=-2   yoffset=2    xadvance=12   page=0    chnl=0 
char id=194     x=155  y=0    width=14   height=15   xoffset=-2   yoffset=2    xadvance=12   page=0    chnl=0 
char id=195     x=169  y=0    width=14   height=15   xoffset=-2   yoffset=2    xadvance=12   page=0    chnl=0 
char id=196     x=447  y=34   width=14   height=13   xoffset=-2   yoffset=4    xadvance=12   page=0    chnl=0 
char id=197     x=183  y=0    width=14   height=15   xoffset=-2   yoffset=2    xadvance=12   page=0    chnl=0 
char id=198     x=461  y=34   width=15   height=13   xoffset=-2   yoffset=4    xadvance=12   page=0    chnl=0 
char id=199     x=476  y=34   width=12   height=13   xoffset=-1   yoffset=4    xadvance=11   page=0    chnl=0 
char id=200     x=197  y=0    width=14   height=15   xoffset=-2   yoffset=2    xadvance=12   page=0    chnl=0 
char id=201     x=211  y=0    width=14   height=15   xoffset=-2   yoffset=2    xadvance=12   page=0    chnl=0 
char id=202     x=225  y=0    width=14   height=15   xoffset=-2   yoffset=2    xadvance=12   page=0    chnl=0 
char id=203     x=488  y=34   width=14   height=13   xoffset=-2   yoffset=4    xadvance=12   page=0    chnl=0 
char id=204     x=239  y=0    width=9    height=15   xoffset=1    yoffset=2    xadvance=10   page=0    chnl=0 
char id=205     x=248  y=0    width=9    height=15   xoffset=1    yoffset=2    xadvance=10   page=0    chnl=0 
char id=206     x=257  y=0    width=10   height=15   xoffset=1    yoffset=2    xadvance=11   page=0    chnl=0 
char id=207     x=0    y=47   width=10   height=13   xoffset=1    yoffset=4    xadvance=11   page=0    chnl=0 
char id=208     x=10   y=47   width=15   height=13   xoffset=-2   yoffset=4    xadvance=12   page=0    chnl=0 
char id=209     x=267  y=0    width=14   height=15   xoffset=-2   yoffset=2    xadvance=12   page=0    chnl=0 
char id=210     x=281  y=0    width=14   height=15   xoffset=-2   yoffset=2    xadvance=12   page=0    chnl=0 
char id=211     x=295  y=0    width=14   height=15   xoffset=-2   yoffset=2    xadvance=12   page=0    chnl=0 
char id=212     x=309  y=0    width=14   height=15   xoffset=-2   yoffset=2    xadvance=12   page=0    chnl=0 
char id=213     x=323  y=0    width=14   height=15   xoffset=-2   yoffset=2    xadvance=12   page=0    chnl=0 
char id=214     x=25   y=47   width=14   height=13   xoffset=-2   yoffset=4    xadvance=12   page=0    chnl=0 
char id=215     x=251  y=47   width=13   height=12   xoffset=-2   yoffset=5    xadvance=11   page=0    chnl=0 
char id=216     x=39   y=47   width=13   height=13   xoffset=-2   yoffset=4    xadvance=11   page=0    chnl=0 
char id=217     x=337  y=0    width=14   height=15   xoffset=-2   yoffset=2    xadvance=12   page=0    chnl=0 
char id=218     x=351  y=0    width=14   height=15   xoffset=-2   yoffset=2    xadvance=12   page=0    chnl=0 
char id=219     x=365  y=0    width=14   height=15   xoffset=-2   yoffset=2    xadvance=12   page=0    chnl=0 
char id=220     x=52   y=47   width=14   height=13   xoffset=-2   yoffset=4    xadvance=12   page=0    chnl=0 
char id=221     x=379  y=0    width=13   height=15   xoffset=-2   yoffset=2    xadvance=11   page=0    chnl=0 
char id=222     x=66   y=47   width=11   height=13   xoffset=-1   yoffset=4    xadvance=10   page=0    chnl=0 
char id=223     x=77   y=47   width=15   height=13   xoffset=-2   yoffset=4    xadvance=12   page=0    chnl=0 
char id=224     x=392  y=0    width=14   height=15   xoffset=-2   yoffset=2    xadvance=12   page=0    chnl=0 
char id=225     x=406  y=0    width=14   height=15   xoffset=-2   yoffset=2    xadvance=12   page=0    chnl=0 
char id=226     x=420  y=0    width=14   height=15   xoffset=-2   yoffset=2    xadvance=12   page=0    chnl=0 
char id=227     x=434  y=0    width=14   height=15   xoffset=-2   yoffset=2    xadvance=12   page=0    chnl=0 
char id=228     x=92   y=47   width=14   height=13   xoffset=-2   yoffset=4    xadvance=12   page=0    chnl=0 
char id=229     x=448  y=0    width=14   height=15   xoffset=-2   yoffset=2    xadvance=12   page=0    chnl=0 
char id=230     x=490  y=47   width=14   height=11   xoffset=-2   yoffset=6    xadvance=12   page=0    chnl=0 
char id=231     x=264  y=47   width=12   height=12   xoffset=-1   yoffset=5    xadvance=11   page=0    chnl=0 
char id=232     x=462  y=0    width=14   height=15   xoffset=-2   yoffset=2    xadvance=12   page=0    chnl=0 
char id=233     x=476  y=0    width=14   height=15   xoffset=-2   yoffset=2    xadvance=12   page=0    chnl=0 
char id=234     x=490  y=0    width=14   height=15   xoffset=-2   yoffset=2    xadvance=12   page=0    chnl=0 
char id=235     x=106  y=47   width=14   height=13   xoffset=-2   yoffset=4    xadvance=12   page=0    chnl=0 
char id=236     x=0    y=19   width=9    height=15   xoffset=1    yoffset=2    xadvance=10   page=0    chnl=0 
char id=237     x=9    y=19   width=9    height=15   xoffset=1    yoffset=2    xadvance=10   page=0    chnl=0 
char id=238     x=18   y=19   width=10   height=15   xoffset=1    yoffset=2    xadvance=11   page=0    chnl=0 
char id=239     x=120  y=47   width=10   height=13   xoffset=1    yoffset=4    xadvance=11   page=0    chnl=0 
char id=240     x=28   y=19   width=13   height=15   xoffset=-2   yoffset=2    xadvance=11   page=0    chnl=0 
char id=241     x=41   y=19   width=13   height=15   xoffset=-2   yoffset=2    xadvance=11   page=0    chnl=0 
char id=242     x=281  y=0    width=14   height=15   xoffset=-2   yoffset=2    xadvance=12   page=0    chnl=0 
char id=243     x=295  y=0    width=14   height=15   xoffset=-2   yoffset=2    xadvance=12   page=0    chnl=0 
char id=244     x=309  y=0    width=14   height=15   xoffset=-2   yoffset=2    xadvance=12   page=0    chnl=0 
char id=245     x=323  y=0    width=14   height=15   xoffset=-2   yoffset=2    xadvance=12   page=0    chnl=0 
char id=246     x=25   y=47   width=14   height=13   xoffset=-2   yoffset=4    xadvance=12   page=0    chnl=0 
char id=248     x=0    y=60   width=13   height=11   xoffset=-2   yoffset=6    xadvance=11   page=0    chnl=0 
char id=249     x=54   y=19   width=14   height=15   xoffset=-2   yoffset=2    xadvance=12   page=0    chnl=0 
char id=250     x=68   y=19   width=14   height=15   xoffset=-2   yoffset=2    xadvance=12   page=0    chnl=0 
char id=251     x=82   y=19   width=14   height=15   xoffset=-2   yoffset=2    xadvance=12   page=0    chnl=0 
char id=252     x=130  y=47   width=14   height=13   xoffset=-2   yoffset=4    xadvance=12   page=0    chnl=0 
char id=253     x=96   y=19   width=14   height=15   xoffset=-2   yoffset=2    xadvance=12   page=0    chnl=0 
char id=254     x=276  y=47   width=12   height=12   xoffset=-1   yoffset=5    xadvance=11   page=0    chnl=0 
char id=255     x=144  y=47   width=14   height=13   xoffset=-2   yoffset=4    xadvance=12   page=0    chnl=0 
char id=338     x=158  y=47   width=13   height=13   xoffset=-2   yoffset=4    xadvance=11   page=0    chnl=0 
char id=353     x=110  y=19   width=13   height=15   xoffset=-2   yoffset=2    xadvance=11   page=0    chnl=0 
char id=376     x=171  y=47   width=13   height=13   xoffset=-2   yoffset=4    xadvance=11   page=0    chnl=0 
char id=381     x=123  y=19   width=13   height=15   xoffset=-2   yoffset=2    xadvance=11   page=0    chnl=0 
char id=1077    x=0    y=0    width=14   height=19   xoffset=-1   yoffset=-2   xadvance=9    page=0    chnl=0 
kernings count=0
